@startuml
start
partition Initialization {
:Input params: ADM_SHARED_DRIVE;
:read config file;
:init internal variable;
}

partition Running {
:wait for user interaction;
:print information;
}


if (Graphviz installed?) then (yes)
:process all\ndiagrams;
else (no)
:process only
__sequence__ and __activity__ diagrams;
endif
stop

@enduml