@startuml
:FOS User: as FOS

usecase US3a as "Wants to add comment for assigned to him control
 --
so that more details about control are available in GSS/Navigator
 --
and new comments would be available for case in dbCCA"

:FOS: --> (US3a)
@enduml